
.. Master file automatically created by doconce sphinx_dir

Preliminary notes for INF5620
=============================

Contents:

.. toctree::
   :maxdepth: 2

   main_decay


Indices and tables
==================

* :ref:`genindex`
* :ref:`modindex`
* :ref:`search`
